\babel@toc {italian}{}
\babel@toc {italian}{}
\beamer@sectionintoc {1}{Introduzione}{2}{0}{1}
\beamer@sectionintoc {2}{Background}{3}{0}{2}
\beamer@sectionintoc {3}{Estensioni PHEMAP}{7}{0}{3}
\beamer@sectionintoc {4}{Risultati Sperimentali}{10}{0}{4}
\beamer@sectionintoc {5}{Conclusioni}{13}{0}{5}
\beamer@sectionintoc {6}{The End}{14}{1}{6}
