\relax 
\providecommand\hyper@newdestlabel[2]{}
\providecommand\HyperFirstAtBeginDocument{\AtBeginDocument}
\HyperFirstAtBeginDocument{\ifx\hyper@anchor\@undefined
\global\let\oldcontentsline\contentsline
\gdef\contentsline#1#2#3#4{\oldcontentsline{#1}{#2}{#3}}
\global\let\oldnewlabel\newlabel
\gdef\newlabel#1#2{\newlabelxx{#1}#2}
\gdef\newlabelxx#1#2#3#4#5#6{\oldnewlabel{#1}{{#2}{#3}}}
\AtEndDocument{\ifx\hyper@anchor\@undefined
\let\contentsline\oldcontentsline
\let\newlabel\oldnewlabel
\fi}
\fi}
\global\let\hyper@last\relax 
\gdef\HyperFirstAtBeginDocument#1{#1}
\providecommand\HyField@AuxAddToFields[1]{}
\providecommand\HyField@AuxAddToCoFields[2]{}
\providecommand \oddpage@label [2]{}
\babel@aux{italian}{}
\babel@aux{italian}{}
\@writefile{nav}{\headcommand {\slideentry {0}{0}{1}{1/1}{}{0}}}
\@writefile{nav}{\headcommand {\beamer@framepages {1}{1}}}
\@writefile{toc}{\beamer@sectionintoc {1}{Introduzione}{2}{0}{1}}
\@writefile{nav}{\headcommand {\beamer@sectionpages {1}{1}}}
\@writefile{nav}{\headcommand {\beamer@subsectionpages {1}{1}}}
\@writefile{nav}{\headcommand {\sectionentry {1}{Introduzione}{2}{Introduzione}{0}}}
\@writefile{nav}{\headcommand {\beamer@subsectionpages {2}{1}}}
\@writefile{nav}{\headcommand {\slideentry {1}{1}{1}{2/2}{}{0}}}
\@writefile{nav}{\headcommand {\beamer@framepages {2}{2}}}
\@writefile{toc}{\beamer@sectionintoc {2}{Background}{3}{0}{2}}
\@writefile{nav}{\headcommand {\beamer@sectionpages {2}{2}}}
\@writefile{nav}{\headcommand {\beamer@subsectionpages {2}{2}}}
\@writefile{nav}{\headcommand {\sectionentry {2}{Background}{3}{Background}{0}}}
\@writefile{nav}{\headcommand {\beamer@subsectionpages {3}{2}}}
\@writefile{nav}{\headcommand {\slideentry {2}{1}{1}{3/3}{}{0}}}
\@writefile{nav}{\headcommand {\beamer@framepages {3}{3}}}
\@writefile{nav}{\headcommand {\slideentry {2}{1}{2}{4/4}{}{0}}}
\@writefile{nav}{\headcommand {\beamer@framepages {4}{4}}}
\@writefile{nav}{\headcommand {\slideentry {2}{1}{3}{5/5}{}{0}}}
\@writefile{nav}{\headcommand {\beamer@framepages {5}{5}}}
\@writefile{nav}{\headcommand {\slideentry {2}{1}{4}{6/6}{}{0}}}
\@writefile{nav}{\headcommand {\beamer@framepages {6}{6}}}
\@writefile{toc}{\beamer@sectionintoc {3}{Estensioni PHEMAP}{7}{0}{3}}
\@writefile{nav}{\headcommand {\beamer@sectionpages {3}{6}}}
\@writefile{nav}{\headcommand {\beamer@subsectionpages {3}{6}}}
\@writefile{nav}{\headcommand {\sectionentry {3}{Estensioni PHEMAP}{7}{Estensioni PHEMAP}{0}}}
\@writefile{nav}{\headcommand {\beamer@subsectionpages {7}{6}}}
\@writefile{nav}{\headcommand {\slideentry {3}{1}{1}{7/7}{}{0}}}
\@writefile{nav}{\headcommand {\beamer@framepages {7}{7}}}
\@writefile{nav}{\headcommand {\slideentry {3}{1}{2}{8/8}{}{0}}}
\@writefile{nav}{\headcommand {\beamer@framepages {8}{8}}}
\@writefile{nav}{\headcommand {\slideentry {3}{1}{3}{9/9}{}{0}}}
\@writefile{nav}{\headcommand {\beamer@framepages {9}{9}}}
\@writefile{toc}{\beamer@sectionintoc {4}{Risultati Sperimentali}{10}{0}{4}}
\@writefile{nav}{\headcommand {\beamer@sectionpages {7}{9}}}
\@writefile{nav}{\headcommand {\beamer@subsectionpages {7}{9}}}
\@writefile{nav}{\headcommand {\sectionentry {4}{Risultati Sperimentali}{10}{Risultati Sperimentali}{0}}}
\@writefile{nav}{\headcommand {\beamer@subsectionpages {10}{9}}}
\@writefile{nav}{\headcommand {\slideentry {4}{1}{1}{10/10}{}{0}}}
\@writefile{nav}{\headcommand {\beamer@framepages {10}{10}}}
\@writefile{nav}{\headcommand {\slideentry {4}{1}{2}{11/11}{}{0}}}
\@writefile{nav}{\headcommand {\beamer@framepages {11}{11}}}
\@writefile{nav}{\headcommand {\slideentry {4}{1}{3}{12/12}{}{0}}}
\@writefile{nav}{\headcommand {\beamer@framepages {12}{12}}}
\@writefile{toc}{\beamer@sectionintoc {5}{Conclusioni}{13}{0}{5}}
\@writefile{nav}{\headcommand {\beamer@sectionpages {10}{12}}}
\@writefile{nav}{\headcommand {\beamer@subsectionpages {10}{12}}}
\@writefile{nav}{\headcommand {\sectionentry {5}{Conclusioni}{13}{Conclusioni}{0}}}
\@writefile{nav}{\headcommand {\beamer@subsectionpages {13}{12}}}
\@writefile{nav}{\headcommand {\slideentry {5}{1}{1}{13/13}{}{0}}}
\@writefile{nav}{\headcommand {\beamer@framepages {13}{13}}}
\@writefile{nav}{\headcommand {\gdef \insertmainframenumber {13}}}
\@writefile{nav}{\headcommand {\partentry {Appendice}{1}}}
\@writefile{nav}{\headcommand {\beamer@partpages {1}{13}}}
\@writefile{nav}{\headcommand {\beamer@sectionpages {13}{13}}}
\@writefile{nav}{\headcommand {\beamer@subsectionpages {13}{13}}}
\@writefile{nav}{\headcommand {\beamer@appendixpages {14}}}
\@writefile{toc}{\beamer@sectionintoc {6}{The End}{14}{1}{6}}
\@writefile{nav}{\headcommand {\beamer@sectionpages {14}{13}}}
\@writefile{nav}{\headcommand {\beamer@subsectionpages {14}{13}}}
\@writefile{nav}{\headcommand {\sectionentry {6}{The End}{14}{The End}{1}}}
\@writefile{nav}{\headcommand {\slideentry {6}{0}{1}{14/14}{}{1}}}
\@writefile{nav}{\headcommand {\beamer@framepages {14}{14}}}
\@writefile{nav}{\headcommand {\beamer@partpages {14}{14}}}
\@writefile{nav}{\headcommand {\beamer@subsectionpages {14}{14}}}
\@writefile{nav}{\headcommand {\beamer@sectionpages {14}{14}}}
\@writefile{nav}{\headcommand {\beamer@documentpages {14}}}
\@writefile{nav}{\headcommand {\gdef \inserttotalframenumber {14}}}
