\beamer@endinputifotherversion {3.36pt}
\beamer@sectionintoc {1}{Introduction}{2}{0}{1}
\beamer@sectionintoc {2}{Metodology}{6}{0}{2}
\beamer@sectionintoc {3}{Experimental Result}{16}{0}{3}
\beamer@sectionintoc {4}{Conclusions}{20}{0}{4}
\beamer@sectionintoc {5}{The End}{21}{1}{5}
