%!PS-Adobe-2.0 EPSF-2.0
%%Creator: GLE 4.2.5 <www.gle-graphics.org>
%%CreationDate: Mon Jan 21 18:09:08 2019
%%Title: compare_bc.gle
%%BoundingBox: 0 0 1420 1136
%%HiResBoundingBox: 0 0 1419.32 1135.86
%%EndComments
%%EndProlog
gsave
/f {findfont exch scalefont setfont} bind def
/s {show} bind def
/ps {true charpath} bind def
/l {lineto} bind def
/m {newpath moveto} bind def
matrix currentmatrix /originmat exch def
/umatrix {originmat matrix concatmatrix setmatrix} def
[28.3465 0 0 28.3465 0 0] umatrix
[28.3465 0 0 28.3465 1 1] umatrix
[] 0 setdash
0.02 setlinewidth
0 setgray
0 0 m
0 0 m
gsave
 newpath 7.5 6 moveto 42.5 6 l 42.5 34 l 7.5 34 l closepath
0 0 moveto
clip
7.5 6 m
7.5 6 m
/GLESTATE save def 
gsave
0 setgray 0 setlinecap 0 setlinewidth 0 setlinejoin
10 setmiterlimit [] 0 setdash
[28.3465 0 0 28.3465 -212.598 -170.079] umatrix
[992.126 0 0 793.701 -7440.94 -4762.2] umatrix
[992.126 0 0 793.701 -7227.35 -4591.13] umatrix
[992.126 0 0 793.701 213.598 171.079] umatrix
save 9 dict begin
{/T currentfile/ASCII85Decode filter def
/DeviceGray setcolorspace
/F T/LZWDecode filter def
<</ImageType 1/Width 1/Height 200/BitsPerComponent 8
/ImageMatrix[1 0 0 -200 0 200]/Decode
[0 1]/DataSource F>> image
F closefile T closefile}
exec
J3Vr<2s_:Sr-cFh:T)DonIKu[hU+9_e`dlq`a2FgN-4)$GIu\Z2f#hS-[!R;:8^dnd-,Pp>g
kV^Q,tt)c<O*l%/%EoDpV_<2X>Lr7r>]h<4:%/Yh3a@>0UZ]<N0&6[+\NgNHLo@B@pA2k&$B
OB4\C%<jkXIO`+ab=NkA/eVSKYYh3$c$O)*2?f5#/jmEk.]NsMu=LH<5EK=>b<m,'W<G8aBk$T;~>
end restore
grestore GLESTATE restore 
[28.3465 0 0 28.3465 1 1] umatrix
0 setgray
0.02 setlinewidth
[] 0 setdash
grestore
0 setgray
0.02 setlinewidth
[] 0 setdash
0 setgray
0.02 setlinewidth
[] 0 setdash
7.5 6 m
7.5 6 m
0 setgray
[] 0 setdash
42.5 6 m
7.5 6 m
7.5 6 m
7.5 34 m
7.5 6 m
7.5 6 m
0.501961 setgray
[] 0 setdash
7.5 8.8 m
7.5 8.8 m
42.5 8.8 l
stroke
7.5 11.6 m
7.5 11.6 m
42.5 11.6 l
stroke
7.5 14.4 m
7.5 14.4 m
42.5 14.4 l
stroke
7.5 17.2 m
7.5 17.2 m
42.5 17.2 l
stroke
7.5 20 m
7.5 20 m
42.5 20 l
stroke
7.5 22.8 m
7.5 22.8 m
42.5 22.8 l
stroke
7.5 25.6 m
7.5 25.6 m
42.5 25.6 l
stroke
7.5 28.4 m
7.5 28.4 m
42.5 28.4 l
stroke
7.5 31.2 m
7.5 31.2 m
42.5 31.2 l
stroke
7.5 34 m
7.5 34 m
42.5 34 l
stroke
0 setgray
0.02 setlinewidth
[] 0 setdash
0 setgray
[] 0 setdash
42.5 6 m
7.5 6 m
7.5 6 m
7.5 34 m
0.02 setlinewidth
[] 0 setdash
0 setgray
newpath 9.73125 6 moveto 10.6063 6 l 10.6063 7.63379 l 9.73125 7.63379 l closepath
0 0 1 setrgbcolor
fill
0 setgray
newpath
7.5 34 m
newpath 9.73125 6 moveto 10.6063 6 l 10.6063 7.63379 l 9.73125 7.63379 l closepath
stroke
7.5 34 m
newpath 18.4813 6 moveto 19.3562 6 l 19.3562 9.58216 l 18.4813 9.58216 l closepath
0 0 1 setrgbcolor
fill
0 setgray
newpath
7.5 34 m
newpath 18.4813 6 moveto 19.3562 6 l 19.3562 9.58216 l 18.4813 9.58216 l closepath
stroke
7.5 34 m
newpath 27.2312 6 moveto 28.1062 6 l 28.1062 15.1572 l 27.2312 15.1572 l closepath
0 0 1 setrgbcolor
fill
0 setgray
newpath
7.5 34 m
newpath 27.2312 6 moveto 28.1062 6 l 28.1062 15.1572 l 27.2312 15.1572 l closepath
stroke
7.5 34 m
newpath 35.9813 6 moveto 36.8562 6 l 36.8562 24.5149 l 35.9813 24.5149 l closepath
0 0 1 setrgbcolor
fill
0 setgray
newpath
7.5 34 m
newpath 35.9813 6 moveto 36.8562 6 l 36.8562 24.5149 l 35.9813 24.5149 l closepath
stroke
7.5 34 m
0.02 setlinewidth
[] 0 setdash
0 setgray
newpath 10.8687 6 moveto 11.7437 6 l 11.7437 7.50026 l 10.8687 7.50026 l closepath
1 0 0 setrgbcolor
fill
0 setgray
newpath
7.5 34 m
newpath 10.8687 6 moveto 11.7437 6 l 11.7437 7.50026 l 10.8687 7.50026 l closepath
stroke
7.5 34 m
newpath 19.6188 6 moveto 20.4937 6 l 20.4937 8.50675 l 19.6188 8.50675 l closepath
1 0 0 setrgbcolor
fill
0 setgray
newpath
7.5 34 m
newpath 19.6188 6 moveto 20.4937 6 l 20.4937 8.50675 l 19.6188 8.50675 l closepath
stroke
7.5 34 m
newpath 28.3688 6 moveto 29.2438 6 l 29.2438 11.7685 l 28.3688 11.7685 l closepath
1 0 0 setrgbcolor
fill
0 setgray
newpath
7.5 34 m
newpath 28.3688 6 moveto 29.2438 6 l 29.2438 11.7685 l 28.3688 11.7685 l closepath
stroke
7.5 34 m
newpath 37.1187 6 moveto 37.9937 6 l 37.9937 18.0646 l 37.1187 18.0646 l closepath
1 0 0 setrgbcolor
fill
0 setgray
newpath
7.5 34 m
newpath 37.1187 6 moveto 37.9937 6 l 37.9937 18.0646 l 37.1187 18.0646 l closepath
stroke
7.5 34 m
0.02 setlinewidth
[] 0 setdash
0 setgray
newpath 12.0063 6 moveto 12.8812 6 l 12.8812 7.67146 l 12.0063 7.67146 l closepath
0 0.501961 0 setrgbcolor
fill
0 setgray
newpath
7.5 34 m
newpath 12.0063 6 moveto 12.8812 6 l 12.8812 7.67146 l 12.0063 7.67146 l closepath
stroke
7.5 34 m
newpath 20.7563 6 moveto 21.6313 6 l 21.6313 8.84526 l 20.7563 8.84526 l closepath
0 0.501961 0 setrgbcolor
fill
0 setgray
newpath
7.5 34 m
newpath 20.7563 6 moveto 21.6313 6 l 21.6313 8.84526 l 20.7563 8.84526 l closepath
stroke
7.5 34 m
newpath 29.5063 6 moveto 30.3813 6 l 30.3813 12.0969 l 29.5063 12.0969 l closepath
0 0.501961 0 setrgbcolor
fill
0 setgray
newpath
7.5 34 m
newpath 29.5063 6 moveto 30.3813 6 l 30.3813 12.0969 l 29.5063 12.0969 l closepath
stroke
7.5 34 m
newpath 38.2562 6 moveto 39.1312 6 l 39.1312 17.6774 l 38.2562 17.6774 l closepath
0 0.501961 0 setrgbcolor
fill
0 setgray
newpath
7.5 34 m
newpath 38.2562 6 moveto 39.1312 6 l 39.1312 17.6774 l 38.2562 17.6774 l closepath
stroke
7.5 34 m
0.02 setlinewidth
[] 0 setdash
0 setgray
newpath 13.1437 6 moveto 14.0187 6 l 14.0187 8.76253 l 13.1437 8.76253 l closepath
1 0.647059 0 setrgbcolor
fill
0 setgray
newpath
7.5 34 m
newpath 13.1437 6 moveto 14.0187 6 l 14.0187 8.76253 l 13.1437 8.76253 l closepath
stroke
7.5 34 m
newpath 21.8938 6 moveto 22.7688 6 l 22.7688 11.5262 l 21.8938 11.5262 l closepath
1 0.647059 0 setrgbcolor
fill
0 setgray
newpath
7.5 34 m
newpath 21.8938 6 moveto 22.7688 6 l 22.7688 11.5262 l 21.8938 11.5262 l closepath
stroke
7.5 34 m
newpath 30.6438 6 moveto 31.5188 6 l 31.5188 19.827 l 30.6438 19.827 l closepath
1 0.647059 0 setrgbcolor
fill
0 setgray
newpath
7.5 34 m
newpath 30.6438 6 moveto 31.5188 6 l 31.5188 19.827 l 30.6438 19.827 l closepath
stroke
7.5 34 m
newpath 39.3937 6 moveto 40.2687 6 l 40.2687 33.6352 l 39.3937 33.6352 l closepath
1 0.647059 0 setrgbcolor
fill
0 setgray
newpath
7.5 34 m
newpath 39.3937 6 moveto 40.2687 6 l 40.2687 33.6352 l 39.3937 33.6352 l closepath
stroke
7.5 34 m
0 setgray
0.02 setlinewidth
[] 0 setdash
7.5 6 m
7.5 6 m
0 setgray
[] 0 setdash
6.9 6 m
6.44304 5.68224 m
6.44304 5.68224 m
0.96 /Times-Roman f
(0) s
6.9 6 m
6.9 8.8 m
6.52176 8.47552 m
6.52176 8.47552 m
(1) s
6.9 8.8 m
6.9 11.6 m
6.444 11.2755 m
6.444 11.2755 m
(2) s
6.9 11.6 m
6.9 14.4 m
6.48624 14.0822 m
6.48624 14.0822 m
(3) s
6.9 14.4 m
6.9 17.2 m
6.44688 16.8755 m
6.44688 16.8755 m
(4) s
6.9 17.2 m
6.9 20 m
6.47952 19.6765 m
6.47952 19.6765 m
(5) s
6.9 20 m
6.9 22.8 m
6.45072 22.4784 m
6.45072 22.4784 m
(6) s
6.9 22.8 m
6.9 25.6 m
6.46896 25.2861 m
6.46896 25.2861 m
(7) s
6.9 25.6 m
6.9 28.4 m
6.4728 28.0822 m
6.4728 28.0822 m
(8) s
6.9 28.4 m
6.9 31.2 m
6.45936 30.8861 m
6.45936 30.8861 m
(9) s
6.9 31.2 m
6.9 34 m
5.96304 33.6822 m
5.96304 33.6822 m
(1) s
6.44304 33.6822 m
(0) s
6.9 34 m
5.4696 20 m
[28.3465 0 0 28.3465 -155.044 -566.929] umatrix
[1.73572e-15 28.3465 -28.3465 1.73572e-15 566.929 -155.044] umatrix
[1.73572e-15 28.3465 -28.3465 1.73572e-15 722.973 412.885] umatrix
2.7846 20.2616 m
2.7846 20.2616 m
1.2 /Times-Roman f
(L) s
3.5178 20.2616 m
(a) s
4.0506 20.2616 m
(t) s
4.3842 20.2616 m
(e) s
4.917 20.2616 m
(n) s
5.517 20.2616 m
(c) s
6.0318 20.2616 m
(y) s
6.9318 20.2616 m
(\50) s
7.3314 20.2616 m
(s) s
7.7982 20.2616 m
(\51) s
5.4696 20 m
[28.3465 0 0 28.3465 1 1] umatrix
0 setgray
0.02 setlinewidth
[] 0 setdash
42.5 6 m
0 setgray
[] 0 setdash
7.5 6 m
0 setgray
[] 0 setdash
9.6875 6 m
9.6875 6 m
9.6875 6.18 l
stroke
14.0625 6 m
14.0625 6 m
14.0625 6.18 l
stroke
16.25 6 m
16.25 6 m
16.25 6.18 l
stroke
18.4375 6 m
18.4375 6 m
18.4375 6.18 l
stroke
22.8125 6 m
22.8125 6 m
22.8125 6.18 l
stroke
25 6 m
25 6 m
25 6.18 l
stroke
27.1875 6 m
27.1875 6 m
27.1875 6.18 l
stroke
31.5625 6 m
31.5625 6 m
31.5625 6.18 l
stroke
33.75 6 m
33.75 6 m
33.75 6.18 l
stroke
35.9375 6 m
35.9375 6 m
35.9375 6.18 l
stroke
40.3125 6 m
40.3125 6 m
40.3125 6.18 l
stroke
0 setgray
0.02 setlinewidth
[] 0 setdash
0 setgray
[] 0 setdash
11.875 6 m
11.875 6 m
11.875 6.36 l
stroke
20.625 6 m
20.625 6 m
20.625 6.36 l
stroke
29.375 6 m
29.375 6 m
29.375 6.36 l
stroke
38.125 6 m
38.125 6 m
38.125 6.36 l
stroke
0 setgray
0.02 setlinewidth
[] 0 setdash
0 setgray
[] 0 setdash
1 setlinecap
7.5 6 m
42.5 6 l
stroke
0 setgray
0.02 setlinewidth
[] 0 setdash
0 setlinecap
0 setgray
[] 0 setdash
11.875 4.73952 m
11.3532 4.73952 m
11.3532 4.73952 m
0.96 /Times-Roman f
(1) s
11.8332 4.73952 m
(0) s
11.875 4.73952 m
20.625 4.73952 m
20.1421 4.73952 m
20.1421 4.73952 m
(2) s
20.6221 4.73952 m
(0) s
20.625 4.73952 m
29.375 4.73952 m
28.8912 4.73952 m
28.8912 4.73952 m
(5) s
29.3712 4.73952 m
(0) s
29.375 4.73952 m
38.125 4.73952 m
37.3632 4.73952 m
37.3632 4.73952 m
(1) s
37.8432 4.73952 m
(0) s
38.3232 4.73952 m
(0) s
38.125 4.73952 m
25 4.12608 m
18.3214 3.30648 m
18.3214 3.30648 m
1.2 /Times-Roman f
(\43) s
18.9214 3.30648 m
(C) s
19.7218 3.30648 m
(o) s
20.3218 3.30648 m
(m) s
21.2554 3.30648 m
(p) s
21.8554 3.30648 m
(l) s
22.189 3.30648 m
(e) s
22.7218 3.30648 m
(t) s
23.0554 3.30648 m
(e) s
23.5882 3.30648 m
(d) s
24.4882 3.30648 m
(M) s
25.555 3.30648 m
(u) s
26.155 3.30648 m
(t) s
26.4886 3.30648 m
(u) s
27.0886 3.30648 m
(a) s
27.6214 3.30648 m
(l) s
28.255 3.30648 m
(A) s
29.1214 3.30648 m
(u) s
29.7214 3.30648 m
(t) s
30.055 3.30648 m
(h) s
30.655 3.30648 m
(n) s
31.255 3.30648 m
(s) s
25 4.12608 m
0 setgray
0.02 setlinewidth
[] 0 setdash
7.5 6 m
7.5 34 m
7.5 34 m
0 setgray
0.02 setlinewidth
[] 0 setdash
0 0 m
0 setgray
newpath 8 29.6696 moveto 15.644 29.6696 l 15.644 33.5 l 8 33.5 l closepath
1 setgray
fill
0 setgray
newpath
0.9093 0 m
8.378 32.5676 m
newpath 8.378 32.5676 moveto 8.966 32.5676 l 8.966 33.122 l 8.378 33.122 l closepath
0 0 1 setrgbcolor
fill
0 setgray
newpath
8.378 32.5676 m
9.2873 32.5676 m
9.2754 32.5676 m
9.2754 32.5676 m
0.7 /Times-Roman f
(B) s
9.7423 32.5676 m
(C) s
10.3842 32.5676 m
(P) s
10.7734 32.5676 m
(H) s
11.2788 32.5676 m
(E) s
11.7065 32.5676 m
(M) s
12.3288 32.5676 m
(A) s
12.8342 32.5676 m
(P) s
13.3984 32.5676 m
(T) s
13.8261 32.5676 m
(\75) s
14.2209 32.5676 m
(2) s
14.5709 32.5676 m
(0) s
9.2873 32.5676 m
8.378 31.7276 m
newpath 8.378 31.7276 moveto 8.966 31.7276 l 8.966 32.282 l 8.378 32.282 l closepath
1 0 0 setrgbcolor
fill
0 setgray
newpath
8.378 31.7276 m
9.2873 31.7276 m
9.2754 31.7276 m
9.2754 31.7276 m
(B) s
9.7423 31.7276 m
(C) s
10.3842 31.7276 m
(P) s
10.7734 31.7276 m
(H) s
11.2788 31.7276 m
(E) s
11.7065 31.7276 m
(M) s
12.3288 31.7276 m
(A) s
12.8342 31.7276 m
(P) s
13.3984 31.7276 m
(T) s
13.8261 31.7276 m
(\75) s
14.2209 31.7276 m
(1) s
14.5709 31.7276 m
(0) s
14.9209 31.7276 m
(0) s
9.2873 31.7276 m
8.378 30.8876 m
newpath 8.378 30.8876 moveto 8.966 30.8876 l 8.966 31.442 l 8.378 31.442 l closepath
0 0.501961 0 setrgbcolor
fill
0 setgray
newpath
8.378 30.8876 m
9.2873 30.8876 m
9.2754 30.8876 m
9.2754 30.8876 m
(B) s
9.7423 30.8876 m
(C) s
10.3842 30.8876 m
(P) s
10.7734 30.8876 m
(H) s
11.2788 30.8876 m
(E) s
11.7065 30.8876 m
(M) s
12.3288 30.8876 m
(A) s
12.8342 30.8876 m
(P) s
13.3984 30.8876 m
(T) s
13.8261 30.8876 m
(\75) s
14.2209 30.8876 m
(5) s
14.5709 30.8876 m
(0) s
14.9209 30.8876 m
(0) s
9.2873 30.8876 m
8.378 30.0476 m
newpath 8.378 30.0476 moveto 8.966 30.0476 l 8.966 30.602 l 8.378 30.602 l closepath
1 0.647059 0 setrgbcolor
fill
0 setgray
newpath
8.378 30.0476 m
9.2873 30.0476 m
9.2754 30.0476 m
9.2754 30.0476 m
(B) s
9.7423 30.0476 m
(a) s
10.0531 30.0476 m
(s) s
10.3254 30.0476 m
(i) s
10.52 30.0476 m
(c) s
11.0058 30.0476 m
(P) s
11.395 30.0476 m
(H) s
11.9004 30.0476 m
(E) s
12.3281 30.0476 m
(M) s
12.9504 30.0476 m
(A) s
13.4558 30.0476 m
(P) s
9.2873 30.0476 m
newpath 8 29.6696 moveto 15.644 29.6696 l 15.644 33.5 l 8 33.5 l closepath
stroke
9.2873 30.0476 m
0 setgray
0 0 m
showpage
grestore
%%Trailer
